Dual_port_ram/transcript
# do vsim.do
# QuestaSim-64 vlog 10.7c Compiler 2018.08 Aug 18 2018
# Start time: 11:02:44 on Feb 19,2025
# vlog -sv ram_dp_async_read.v tb_ram_dp_async_read.v 
# -- Compiling module ram_dp_async_read
# -- Compiling module tb_ram_dp_async_read
# 
# Top level modules:
# 	tb_ram_dp_async_read
# End time: 11:02:44 on Feb 19,2025, Elapsed time: 0:00:00
# Errors: 0, Warnings: 0
# vsim -uvmcontrol=all work.tb_ram_dp_async_read 
# Start time: 11:02:46 on Feb 19,2025
# ** Note: (vsim-3812) Design is being optimized...
# //  Questa Sim-64
# //  Version 10.7c win64 Aug 18 2018
# //
# //  Copyright 1991-2018 Mentor Graphics Corporation
# //  All Rights Reserved.
# //
# //  QuestaSim and its associated documentation contain trade
# //  secrets and commercial or financial information that are the property of
# //  Mentor Graphics Corporation and are privileged, confidential,
# //  and exempt from disclosure under the Freedom of Information Act,
# //  5 U.S.C. Section 552. Furthermore, this information
# //  is prohibited from disclosure under the Trade Secrets Act,
# //  18 U.S.C. Section 1905.
# //
# Loading sv_std.std
# Loading work.tb_ram_dp_async_read(fast)
#                    2 Test1 Start
#                    5 SUCCESS address = 0, expected_data = 24, observed_data = 24
#                    9 SUCCESS address = 1, expected_data = 81, observed_data = 81
#                   13 SUCCESS address = 2, expected_data = 9, observed_data = 9
#                   17 SUCCESS address = 3, expected_data = 63, observed_data = 63
#                   21 SUCCESS address = 4, expected_data = d, observed_data = d
#                   25 SUCCESS address = 5, expected_data = 8d, observed_data = 8d
#                   29 SUCCESS address = 6, expected_data = 65, observed_data = 65
#                   33 SUCCESS address = 7, expected_data = 12, observed_data = 12
#                   37 SUCCESS address = 8, expected_data = 1, observed_data = 1
#                   41 SUCCESS address = 9, expected_data = d, observed_data = d
#                   45 SUCCESS address = 10, expected_data = 76, observed_data = 76
#                   49 SUCCESS address = 11, expected_data = 3d, observed_data = 3d
#                   53 SUCCESS address = 12, expected_data = ed, observed_data = ed
#                   57 SUCCESS address = 13, expected_data = 8c, observed_data = 8c
#                   61 SUCCESS address = 14, expected_data = f9, observed_data = f9
#                   65 SUCCESS address = 15, expected_data = c6, observed_data = c6
#                   69 SUCCESS address = 16, expected_data = c5, observed_data = c5
#                   73 SUCCESS address = 17, expected_data = aa, observed_data = aa
#                   77 SUCCESS address = 18, expected_data = e5, observed_data = e5
#                   81 SUCCESS address = 19, expected_data = 77, observed_data = 77
#                   85 SUCCESS address = 20, expected_data = 12, observed_data = 12
#                   89 SUCCESS address = 21, expected_data = 8f, observed_data = 8f
#                   93 SUCCESS address = 22, expected_data = f2, observed_data = f2
#                   97 SUCCESS address = 23, expected_data = ce, observed_data = ce
#                  101 SUCCESS address = 24, expected_data = e8, observed_data = e8
#                  105 SUCCESS address = 25, expected_data = c5, observed_data = c5
#                  109 SUCCESS address = 26, expected_data = 5c, observed_data = 5c
#                  113 SUCCESS address = 27, expected_data = bd, observed_data = bd
#                  117 SUCCESS address = 28, expected_data = 2d, observed_data = 2d
#                  121 SUCCESS address = 29, expected_data = 65, observed_data = 65
#                  125 SUCCESS address = 30, expected_data = 63, observed_data = 63
#                  129 SUCCESS address = 31, expected_data = a, observed_data = a
#                  133 SUCCESS address = 32, expected_data = 80, observed_data = 80
#                  137 SUCCESS address = 33, expected_data = 20, observed_data = 20
#                  141 SUCCESS address = 34, expected_data = aa, observed_data = aa
#                  145 SUCCESS address = 35, expected_data = 9d, observed_data = 9d
#                  149 SUCCESS address = 36, expected_data = 96, observed_data = 96
#                  153 SUCCESS address = 37, expected_data = 13, observed_data = 13
#                  157 SUCCESS address = 38, expected_data = d, observed_data = d
#                  161 SUCCESS address = 39, expected_data = 53, observed_data = 53
#                  165 SUCCESS address = 40, expected_data = 6b, observed_data = 6b
#                  169 SUCCESS address = 41, expected_data = d5, observed_data = d5
#                  173 SUCCESS address = 42, expected_data = 2, observed_data = 2
#                  177 SUCCESS address = 43, expected_data = ae, observed_data = ae
#                  181 SUCCESS address = 44, expected_data = 1d, observed_data = 1d
#                  185 SUCCESS address = 45, expected_data = cf, observed_data = cf
#                  189 SUCCESS address = 46, expected_data = 23, observed_data = 23
#                  193 SUCCESS address = 47, expected_data = a, observed_data = a
#                  197 SUCCESS address = 48, expected_data = ca, observed_data = ca
#                  201 SUCCESS address = 49, expected_data = 3c, observed_data = 3c
#                  205 SUCCESS address = 50, expected_data = f2, observed_data = f2
#                  209 SUCCESS address = 51, expected_data = 8a, observed_data = 8a
#                  213 SUCCESS address = 52, expected_data = 41, observed_data = 41
#                  217 SUCCESS address = 53, expected_data = d8, observed_data = d8
#                  221 SUCCESS address = 54, expected_data = 78, observed_data = 78
#                  225 SUCCESS address = 55, expected_data = 89, observed_data = 89
#                  229 SUCCESS address = 56, expected_data = eb, observed_data = eb
#                  233 SUCCESS address = 57, expected_data = b6, observed_data = b6
#                  237 SUCCESS address = 58, expected_data = c6, observed_data = c6
#                  241 SUCCESS address = 59, expected_data = ae, observed_data = ae
#                  245 SUCCESS address = 60, expected_data = bc, observed_data = bc
#                  249 SUCCESS address = 61, expected_data = 2a, observed_data = 2a
#                  253 SUCCESS address = 62, expected_data = b, observed_data = b
#                  257 SUCCESS address = 63, expected_data = 71, observed_data = 71
#                  257 Test2 Start
#                  261 SUCCESS address = 5, expected_data = 5a, observed_data = 5a
#                  265 SUCCESS address = 15, expected_data = fa, observed_data = fa
#                  269 SUCCESS address = 59, expected_data = ba, observed_data = ba
#                  273 SUCCESS address = 58, expected_data = a5, observed_data = a5
#                  277 SUCCESS address = 62, expected_data = e5, observed_data = e5
#                  281 SUCCESS address = 21, expected_data = 5a, observed_data = 5a
#                  285 SUCCESS address = 49, expected_data = 1a, observed_data = 1a
#                  289 SUCCESS address = 25, expected_data = 9a, observed_data = 9a
#                  293 SUCCESS address = 34, expected_data = 25, observed_data = 25
#                  297 SUCCESS address = 12, expected_data = c5, observed_data = c5
#                  301 SUCCESS address = 31, expected_data = fa, observed_data = fa
#                  305 SUCCESS address = 15, expected_data = fa, observed_data = fa
#                  309 SUCCESS address = 56, expected_data = 85, observed_data = 85
#                  313 SUCCESS address = 55, expected_data = 7a, observed_data = 7a
#                  317 SUCCESS address = 31, expected_data = fa, observed_data = fa
#                  321 SUCCESS address = 28, expected_data = c5, observed_data = c5
#                  325 SUCCESS address = 27, expected_data = ba, observed_data = ba
#                  329 SUCCESS address = 9, expected_data = 9a, observed_data = 9a
#                  333 SUCCESS address = 9, expected_data = 9a, observed_data = 9a
#                  337 SUCCESS address = 16, expected_data = 5, observed_data = 5
#                  341 SUCCESS address = 23, expected_data = 7a, observed_data = 7a
#                  345 SUCCESS address = 17, expected_data = 1a, observed_data = 1a
#                  349 SUCCESS address = 22, expected_data = 65, observed_data = 65
#                  353 SUCCESS address = 12, expected_data = c5, observed_data = c5
#                  357 SUCCESS address = 2, expected_data = 25, observed_data = 25
#                  361 SUCCESS address = 8, expected_data = 85, observed_data = 85
#                  365 SUCCESS address = 55, expected_data = 7a, observed_data = 7a
#                  369 SUCCESS address = 61, expected_data = da, observed_data = da
#                  373 SUCCESS address = 18, expected_data = 25, observed_data = 25
#                  377 SUCCESS address = 62, expected_data = e5, observed_data = e5
#                  381 SUCCESS address = 45, expected_data = da, observed_data = da
#                  385 SUCCESS address = 57, expected_data = 9a, observed_data = 9a
#                  389 SUCCESS address = 31, expected_data = fa, observed_data = fa
#                  393 SUCCESS address = 19, expected_data = 3a, observed_data = 3a
#                  397 SUCCESS address = 5, expected_data = 5a, observed_data = 5a
#                  401 SUCCESS address = 56, expected_data = 85, observed_data = 85
#                  405 SUCCESS address = 27, expected_data = ba, observed_data = ba
#                  409 SUCCESS address = 9, expected_data = 9a, observed_data = 9a
#                  413 SUCCESS address = 63, expected_data = fa, observed_data = fa
#                  417 SUCCESS address = 42, expected_data = a5, observed_data = a5
#                  421 SUCCESS address = 24, expected_data = 85, observed_data = 85
#                  425 SUCCESS address = 6, expected_data = 65, observed_data = 65
#                  429 SUCCESS address = 14, expected_data = e5, observed_data = e5
#                  433 SUCCESS address = 28, expected_data = c5, observed_data = c5
#                  437 SUCCESS address = 58, expected_data = a5, observed_data = a5
#                  441 SUCCESS address = 38, expected_data = 65, observed_data = 65
#                  445 SUCCESS address = 51, expected_data = 3a, observed_data = 3a
#                  449 SUCCESS address = 35, expected_data = 3a, observed_data = 3a
#                  453 SUCCESS address = 47, expected_data = fa, observed_data = fa
#                  457 SUCCESS address = 51, expected_data = 3a, observed_data = 3a
#                  461 SUCCESS address = 31, expected_data = fa, observed_data = fa
#                  465 SUCCESS address = 4, expected_data = 45, observed_data = 45
#                  469 SUCCESS address = 55, expected_data = 7a, observed_data = 7a
#                  473 SUCCESS address = 11, expected_data = ba, observed_data = ba
#                  477 SUCCESS address = 38, expected_data = 65, observed_data = 65
#                  481 SUCCESS address = 26, expected_data = a5, observed_data = a5
#                  485 SUCCESS address = 41, expected_data = 9a, observed_data = 9a
#                  489 SUCCESS address = 45, expected_data = da, observed_data = da
#                  493 SUCCESS address = 26, expected_data = a5, observed_data = a5
#                  497 SUCCESS address = 37, expected_data = 5a, observed_data = 5a
#                  501 SUCCESS address = 53, expected_data = 5a, observed_data = 5a
#                  505 SUCCESS address = 31, expected_data = fa, observed_data = fa
#                  509 SUCCESS address = 57, expected_data = 9a, observed_data = 9a
#                  513 SUCCESS address = 4, expected_data = 45, observed_data = 45
#                  513 TEST RESULTS success_count = 128, error_count = 0, test_count = 128
# ** Note: $stop    : tb_ram_dp_async_read.v(78)
#    Time: 553100 ns  Iteration: 0  Instance: /tb_ram_dp_async_read
# Break at tb_ram_dp_async_read.v line 78
# Stopped at tb_ram_dp_async_read.v line 78
